sr_latch.vcd
$date
	Wed Mar 23 11:29:09 2022
$end
$version
	Icarus Verilog
$end
$timescale
	1s
$end
$scope module testbench $end
$var wire 1 ! qb $end
$var wire 1 " q $end
$var reg 1 # clk $end
$var reg 2 $ sr [1:0] $end
$scope module uut $end
$var wire 1 # clk $end
$var wire 2 % sr [1:0] $end
$var reg 1 " q $end
$var reg 1 ! qb $end
$upscope $end
$upscope $end
$enddefinitions $end
#0
$dumpvars
bx %
bx $
x#
x"
x!
$end
#50
b0 $
b0 %
0#
#75
1#
#100
0#
b1 $
b1 %
#125
1!
0"
1#
#150
0#
b10 $
b10 %
#175
0!
1"
1#
#200
0#
b11 $
b11 %
#225
x!
z"
1#
#250
0#
b0 $
b0 %
